…
``` r
parcial_anonimo %>%
  group_by(Territorio) %>%
  summarise(totVentas = sum(Venta))%>%
  arrange(totVentas)
```

    ## # A tibble: 104 × 2
    ##    Territorio totVentas
    ##    <chr>          <dbl>
    ##  1 e6fd9da9        18.2
    ##  2 13b223c9        49.9
    ##  3 368301e2       121. 
    ##  4 79428560       132  
    ##  5 e034e3c8       247. 
    ##  6 0bfe69a0       384. 
    ##  7 456278b8       493. 
    ##  8 4163fa3f       580. 
    ##  9 3e0d75d0       647. 
    ## 10 aed8e579       747. 
    ## # … with 94 more rows
    ## # ℹ Use `print(n = ...)` to see more rows
